0 info it worked if it ends with ok
1 verbose cli [ 'node', '/usr/local/bin/npm', 'install', 'browsersync' ]
2 info using npm@1.4.28
3 info using node@v0.10.33
4 warn package.json Sucasa@1.0.0 No description
5 warn package.json Sucasa@1.0.0 No repository field.
6 warn package.json Sucasa@1.0.0 No README data
7 verbose readDependencies using package.json deps
8 verbose cache add [ 'browsersync', null ]
9 verbose cache add name=undefined spec="browsersync" args=["browsersync",null]
10 verbose parsed url { protocol: null,
10 verbose parsed url   slashes: null,
10 verbose parsed url   auth: null,
10 verbose parsed url   host: null,
10 verbose parsed url   port: null,
10 verbose parsed url   hostname: null,
10 verbose parsed url   hash: null,
10 verbose parsed url   search: null,
10 verbose parsed url   query: null,
10 verbose parsed url   pathname: 'browsersync',
10 verbose parsed url   path: 'browsersync',
10 verbose parsed url   href: 'browsersync' }
11 silly lockFile 9d30254b-browsersync browsersync
12 verbose lock browsersync /Users/jebeasley/.npm/9d30254b-browsersync.lock
13 silly lockFile 9d30254b-browsersync browsersync
14 silly lockFile 9d30254b-browsersync browsersync
15 verbose addNamed [ 'browsersync', '' ]
16 verbose addNamed [ null, '*' ]
17 silly lockFile c94e11e6-browsersync browsersync@
18 verbose lock browsersync@ /Users/jebeasley/.npm/c94e11e6-browsersync.lock
19 silly addNameRange { name: 'browsersync', range: '*', hasData: false }
20 verbose request where is /browsersync
21 verbose request registry https://registry.npmjs.org/
22 verbose request id 44dd9ebeed2c411e
23 verbose url raw /browsersync
24 verbose url resolving [ 'https://registry.npmjs.org/', './browsersync' ]
25 verbose url resolved https://registry.npmjs.org/browsersync
26 verbose request where is https://registry.npmjs.org/browsersync
27 info trying registry request attempt 1 at 01:00:18
28 http GET https://registry.npmjs.org/browsersync
29 http 404 https://registry.npmjs.org/browsersync
30 verbose headers { date: 'Tue, 30 Dec 2014 09:00:19 GMT',
30 verbose headers   server: 'CouchDB/1.5.0 (Erlang OTP/R14B04)',
30 verbose headers   'content-type': 'application/json',
30 verbose headers   'cache-control': 'max-age=0',
30 verbose headers   'content-length': '52',
30 verbose headers   'accept-ranges': 'bytes',
30 verbose headers   via: '1.1 varnish',
30 verbose headers   age: '0',
30 verbose headers   'x-served-by': 'cache-sjc3135-SJC',
30 verbose headers   'x-cache': 'MISS',
30 verbose headers   'x-cache-hits': '0',
30 verbose headers   'x-timer': 'S1419930018.680818,VS0,VE358',
30 verbose headers   'keep-alive': 'timeout=10, max=50',
30 verbose headers   connection: 'Keep-Alive' }
31 silly registry.get cb [ 404,
31 silly registry.get   { date: 'Tue, 30 Dec 2014 09:00:19 GMT',
31 silly registry.get     server: 'CouchDB/1.5.0 (Erlang OTP/R14B04)',
31 silly registry.get     'content-type': 'application/json',
31 silly registry.get     'cache-control': 'max-age=0',
31 silly registry.get     'content-length': '52',
31 silly registry.get     'accept-ranges': 'bytes',
31 silly registry.get     via: '1.1 varnish',
31 silly registry.get     age: '0',
31 silly registry.get     'x-served-by': 'cache-sjc3135-SJC',
31 silly registry.get     'x-cache': 'MISS',
31 silly registry.get     'x-cache-hits': '0',
31 silly registry.get     'x-timer': 'S1419930018.680818,VS0,VE358',
31 silly registry.get     'keep-alive': 'timeout=10, max=50',
31 silly registry.get     connection: 'Keep-Alive' } ]
32 silly lockFile c94e11e6-browsersync browsersync@
33 silly lockFile c94e11e6-browsersync browsersync@
34 error 404 404 Not Found: browsersync
34 error 404
34 error 404 'browsersync' is not in the npm registry.
34 error 404 You should bug the author to publish it
34 error 404 It was specified as a dependency of 'Sucasa'
34 error 404
34 error 404 Note that you can also install from a
34 error 404 tarball, folder, or http url, or git url.
35 error System Darwin 14.0.0
36 error command "node" "/usr/local/bin/npm" "install" "browsersync"
37 error cwd /Applications/MAMP/htdocs/wewantrest
38 error node -v v0.10.33
39 error npm -v 1.4.28
40 error code E404
41 verbose exit [ 1, true ]
