<?xml version="1.0" encoding="utf-8"?>
<!-- Generator: Adobe Illustrator 18.1.1, SVG Export Plug-In . SVG Version: 6.00 Build 0)  -->
<svg version="1.1" id="Layer_1" xmlns="http://www.w3.org/2000/svg" xmlns:xlink="http://www.w3.org/1999/xlink" x="0px" y="0px"
	 viewBox="0 0 320.6 23.8" enable-background="new 0 0 320.6 23.8" xml:space="preserve">
<g>
	<g>
		<g>
			<g>
				<rect x="78.5" y="0.3" fill="#FFFFFF" width="2.3" height="23.2"/>
				<rect x="107.7" y="0.3" fill="#FFFFFF" width="9.2" height="0.7"/>
				<rect x="107.7" y="22.7" fill="#FFFFFF" width="9.2" height="0.7"/>
				<rect x="107.7" y="11.1" fill="#FFFFFF" width="8" height="0.7"/>
				<rect x="101.5" y="0.3" fill="#FFFFFF" width="2.3" height="23.2"/>
				<rect x="200.6" y="0.3" fill="#FFFFFF" width="2.3" height="23.2"/>
				<path fill="#FFFFFF" d="M315.4,11.9l-3.9-1.2c-3.1-0.9-5.1-1.8-5.1-4.8c0-2.5,1.6-4.3,4.3-5V0.2c-3.2,0.7-5.1,2.8-5.1,5.7
					c0,3.2,2,4.4,5.1,5.4l4.7,1.4c3.1,0.9,4.5,2.5,4.5,5c0,2.7-1.7,4.6-4.7,5.2v0.7c3.4-0.6,5.4-2.8,5.4-5.9
					C320.6,14.7,319.1,13,315.4,11.9z"/>
				<path fill="#FFFFFF" d="M305.9,18.4h-0.9c0.8,2.7,3.1,4.6,6.2,5.2v-0.7C308.7,22.3,306.8,20.8,305.9,18.4z"/>
				<path fill="#FFFFFF" d="M319.6,5.3h0.8c-0.9-2.8-2.9-4.6-5.8-5.1v0.7C317,1.4,318.8,2.9,319.6,5.3z"/>
				<path fill="#FFFFFF" d="M0.9,18.4L0.9,18.4H0c0.8,2.7,3.1,4.6,6.2,5.2v-0.7C3.6,22.4,1.7,20.8,0.9,18.4z"/>
				<path fill="#FFFFFF" d="M10.3,11.9l-3.9-1.2C3.3,9.8,1.3,8.9,1.3,5.9c0-2.5,1.6-4.3,4.3-5V0.2C2.4,0.9,0.5,3,0.5,5.9
					c0,3.2,2,4.4,5.1,5.4l4.7,1.4c3.1,0.9,4.5,2.5,4.5,5c0,2.7-1.7,4.6-4.7,5.2v0.7c3.4-0.6,5.4-2.8,5.4-5.9
					C15.6,14.7,14,13,10.3,11.9z"/>
				<path fill="#FFFFFF" d="M14.5,5.3c0,0,0.8-0.2,0.7-0.3c-0.9-2.6-2.9-4.3-5.8-4.8v0.7C11.9,1.4,13.7,2.9,14.5,5.3z"/>
				<polygon fill="#FFFFFF" points="43.8,0.3 34.1,22.2 27.9,8.1 27.3,8.4 33.9,23.5 34.3,23.5 44.5,0.3 				"/>
				<rect x="22" y="0.3" fill="#FFFFFF" width="2.3" height="23.2"/>
				<rect x="43.8" y="8.9" fill="#FFFFFF" width="0.7" height="14.2"/>
				<polygon fill="#FFFFFF" points="191.8,0.3 182.2,22.2 176,8.1 175.3,8.4 181.9,23.5 182.3,23.5 192.5,0.3 				"/>
				<rect x="170.1" y="0.3" fill="#FFFFFF" width="2.3" height="23.2"/>
				<rect x="191.9" y="8.5" fill="#FFFFFF" width="0.7" height="14.9"/>
				<path fill="#FFFFFF" d="M63.4,0.2v0.7c5.4,0.9,9.2,5.5,9.2,11c0,5.5-3.9,10.1-9.2,11v0.7c5.7-0.9,9.9-5.9,9.9-11.7
					C73.3,6.1,69.1,1.1,63.4,0.2z"/>
				<path fill="#FFFFFF" d="M49.6,11.9c0,5.8,4.3,10.8,9.9,11.7v-0.7c-5.4-0.9-9.2-5.5-9.2-11c0-5.5,3.9-10.1,9.2-11V0.2
					C53.8,1.1,49.6,6.1,49.6,11.9z"/>
				<path fill="#FFFFFF" d="M254.1,11.9c0,5.8,4.3,10.8,9.9,11.7v-0.7c-5.4-0.9-9.2-5.5-9.2-11s3.9-10.1,9.2-11V0.2
					C258.4,1.1,254.1,6.1,254.1,11.9z"/>
				<path fill="#FFFFFF" d="M267.9,0.2v0.7c5.4,0.9,9.2,5.5,9.2,11s-3.9,10.1-9.2,11v0.7c5.7-0.9,9.9-5.9,9.9-11.7
					S273.6,1.1,267.9,0.2z"/>
				<rect x="283.2" y="0.3" fill="#FFFFFF" width="2.3" height="23.2"/>
				<polygon fill="#FFFFFF" points="294,14.9 299.7,23.5 300.6,23.5 294.9,14.9 				"/>
				<path fill="#FFFFFF" d="M299.6,6.5c0-4-2.5-6.2-7-6.2h-3.2v0.7h3.1c4,0,6.3,1.9,6.3,5.5c0,3.5-2.2,5.5-6.3,5.5h-3.1v0.7
					c0,0,2.8,0,3.3,0c0.5,0,1,0,1,0C297.6,12.3,299.6,10.2,299.6,6.5z"/>
				<rect x="233.2" y="0.3" fill="#FFFFFF" width="2.3" height="23.2"/>
				<polygon fill="#FFFFFF" points="244,14.9 249.7,23.5 250.6,23.5 244.9,14.9 				"/>
				<path fill="#FFFFFF" d="M249.6,6.5c0-4-2.5-6.2-7-6.2h-3.2v0.7h3.1c4,0,6.3,1.9,6.3,5.5c0,3.5-2.2,5.5-6.3,5.5h-3.1v0.7
					c0,0,2.8,0,3.3,0c0.5,0,1,0,1,0C247.6,12.3,249.6,10.2,249.6,6.5z"/>
				<rect x="210.3" y="0.3" fill="#FFFFFF" width="2.3" height="23.2"/>
				<polygon fill="#FFFFFF" points="221.1,14.9 226.8,23.5 227.7,23.5 222,14.9 				"/>
				<path fill="#FFFFFF" d="M226.7,6.5c0-4-2.5-6.2-7-6.2h-3.2v0.7h3.1c4,0,6.3,1.9,6.3,5.5c0,3.5-2.2,5.5-6.3,5.5h-3.1v0.7
					c0,0,2.8,0,3.3,0s1,0,1,0C224.7,12.3,226.7,10.2,226.7,6.5z"/>
				<path fill="#FFFFFF" d="M136.3,5.5c0-2.9,1.9-4.8,4.9-4.8c2.8,0,4.7,1.7,5.1,4.6h0.7c-0.5-3.4-2.6-5.3-5.8-5.3
					c-3.3,0-5.7,2.3-5.7,5.5c0,1.9,0.8,3.2,2.1,4.6l0.2,0.2l-0.3,0.1c-2.8,1-4.7,3.6-4.7,6.5c0,3.9,3,6.9,7.1,6.9
					c1.9,0,3.6-0.5,5-1.4l-0.5-0.5c-1.3,0.8-2.9,1.2-4.6,1.2c-3.6,0-6.3-2.7-6.3-6.2c0-2.7,1.9-5.3,4.5-6l0.1,0l12,12.6h0.9
					l-12-12.7C137.6,9,136.3,7.6,136.3,5.5z"/>
				<polygon fill="#FFFFFF" points="96.3,0.3 95.3,0.3 84.3,10.9 95.8,23.5 96.7,23.5 85.3,10.9 				"/>
			</g>
		</g>
		<circle fill="#FFFFFF" cx="149.3" cy="14.2" r="1.5"/>
	</g>
</g>
</svg>
